Biostat 203B Homework 5
…
   user  system elapsed 
 24.846   1.768  27.432 

logit_fit |>
  collect_metrics() |>
  print(width = Inf) |>
  filter(.metric == "roc_auc") |>
  ggplot(mapping = aes(x = penalty, y = mean, color = factor(mixture))) +
  geom_point(alpha=0.6) +
  labs(x = "Penalty", y = "CV AUC") +
  scale_x_log10()

# A tibble: 1,000 × 8
   penalty mixture .metric  .estimator  mean     n std_err
     <dbl>   <dbl> <chr>    <chr>      <dbl> <int>   <dbl>
 1 0.001         0 accuracy binary     0.570     3 0.00485
 2 0.001         0 roc_auc  binary     0.598     3 0.00659
 3 0.00115       0 accuracy binary     0.570     3 0.00485
 4 0.00115       0 roc_auc  binary     0.598     3 0.00659
 5 0.00132       0 accuracy binary     0.570     3 0.00485
 6 0.00132       0 roc_auc  binary     0.598     3 0.00659
 7 0.00152       0 accuracy binary     0.570     3 0.00485
 8 0.00152       0 roc_auc  binary     0.598     3 0.00659
 9 0.00175       0 accuracy binary     0.570     3 0.00485
10 0.00175       0 roc_auc  binary     0.598     3 0.00659
   .config               
   <chr>                 
 1 Preprocessor1_Model001
 2 Preprocessor1_Model001
 3 Preprocessor1_Model002
 4 Preprocessor1_Model002
 5 Preprocessor1_Model003
 6 Preprocessor1_Model003
 7 Preprocessor1_Model004
 8 Preprocessor1_Model004
 9 Preprocessor1_Model005
10 Preprocessor1_Model005
# ℹ 990 more rows
…
